…
manipulations for visualizations

Below there are several manippulations that need to be made in order to group the data properly for visualizations.

fastfood_calories %>%
  filter(salad_cat %in% c("sandwich",
                          "burger",
                          "salad",
                          "tendies",
                          "taco"))

## # A tibble: 337 x 23
##       X1 restaurant item  calories cal_fat total_fat sat_fat trans_fat
##    <dbl> <fct>      <chr>    <dbl>   <dbl>     <dbl>   <dbl>     <dbl>
##  1     1 Mcdonalds  Arti~      380      60         7       2       0  
##  2     2 Mcdonalds  Sing~      840     410        45      17       1.5
##  3     3 Mcdonalds  Doub~     1130     600        67      27       3  
##  4     4 Mcdonalds  Gril~      750     280        31      10       0.5
##  5     5 Mcdonalds  Cris~      920     410        45      12       0.5
##  6     6 Mcdonalds  Big ~      540     250        28      10       1  
##  7     7 Mcdonalds  Chee~      300     100        12       5       0.5
##  8     8 Mcdonalds  Clas~      510     210        24       4       0  
##  9     9 Mcdonalds  Doub~      430     190        21      11       1  
## 10    12 Mcdonalds  Garl~      620     300        34      13       1.5
## # ... with 327 more rows, and 15 more variables: cholesterol <dbl>,
## #   sodium <dbl>, total_carb <dbl>, fiber <dbl>, sugar <dbl>, protein <dbl>,
## #   vit_a <dbl>, vit_c <dbl>, calcium <dbl>, salad <chr>,
## #   perc_sat_fat_cals <dbl>, perc_sugar_cals <dbl>, perc_daily_cals <dbl>,
## #   satfat_sugar_ratio <dbl>, salad_cat <fct>
…
